Mitarbeiter Nachname, Datum des Verkaufs (JJJJ-MM-TT z.B. 2022-12-19),Preis des Gerätes, Produkt Kategorie, Marke
Werner,2022-11-30,44230,Traktor,John Deer
Werner,2022-11-29,66230,Traktor,Lamborghini
Werner,2022-11-28,42344,Traktor,Escorts
Werner,2022-11-27,21533,Traktor,Fendt
Werner,2022-11-26,44230,Traktor,Kubota
Werner,2022-11-25,44230,Traktor,Steyr
Werner,2022-11-24,44230,Traktor,New Holland
Werner,2022-11-23,44230,Traktor,Iseki
Werner,2022-11-22,44230,Traktor,Valtra
Werner,2022-11-21,44230,Traktor,John Deer
Werner,2022-11-20,66230,Traktor,Lamborghini
Werner,2022-11-19,42344,Traktor,Escorts
Werner,2022-11-18,21533,Traktor,Fendt
Werner,2022-11-17,44230,Traktor,Kubota
Werner,2022-11-16,44230,Traktor,Steyr
Werner,2022-11-15,44230,Traktor,New Holland
Werner,2022-11-,44230,Traktor,Iseki
Werner,2022-11-13,44230,Traktor,Valtra
Werner,2022-11-12,42344,Traktor,Escorts
Werner,2022-11-11,21533,Traktor,Fendt
Werner,2022-11-10,44230,Traktor,Kubota
Werner,2022-11-09,44230,Traktor,Steyr
Werner,2022-11-08,44230,Traktor,New Holland
Werner,2022-11-17,44230,Traktor,Kubota
Werner,2022-11-16,44230,Traktor,Steyr
Werner,2022-11-15,44230,Traktor,New Holland
Werner,2022-11-14,44230,Traktor,Iseki
Werner,2022-11-13,44230,Traktor,Valtra
Werner,2022-11-12,42344,Traktor,Escorts
Werner,2022-11-11,21533,Traktor,Fendt
Werner,2022-11-10,44230,Traktor,Kubota
Werner,2022-11-09,44230,Traktor,Steyr
Werner,2022-11-08,44230,Traktor,New Holland
Werner,2022-11-07,44230,Traktor,Iseki
Werner,2022-11-06,44230,Traktor,Valtra
Werner,2022-11-05,44230,Traktor,Valtra
Werner,2022-11-04,44230,Traktor,Valtra
Werner,2022-11-03,44230,Traktor,Valtra
Werner,2022-11-02,44230,Traktor,Valtra
Werner,2022-11-01,44230,Traktor,Valtra
Werner,2022-11-30,521533,Maehdrescher,Kubota
Werner,2022-11-22,444230,Maehdrescher,Steyr
Werner,2022-11-13,244230,Maehdrescher,New Holland
Werner,2022-11-20,144230,Maehdrescher,Iseki
Werner,2022-11-20,244230,Maehdrescher,Valtra
Werner,2022-11-19,544230,Maehdrescher,Valtra
Franz,2022-11-30,44230,Traktor,Valtra
Franz,2022-11-29,66230,Traktor,Escorts
Franz,2022-11-28,42344,Traktor,Fendt
Franz,2022-11-27,21533,Traktor,Kubota
Franz,2022-11-26,44230,Traktor,Steyr
Franz,2022-11-25,44230,Traktor,New Holland
Franz,2022-11-24,44230,Traktor,Iseki
Franz,2022-11-23,44230,Traktor,Valtra
Franz,2022-11-22,44230,Traktor,Valtra
Franz,2022-11-21,44230,Traktor,Valtra
Franz,2022-11-20,6230,Anhaenger,Valtra
Franz,2022-11-19,2344,Anhaenger,Valtra
Franz,2022-11-18,1533,Anhaenger,Valtra
Franz,2022-11-16,4230,Anhaenger,Steyr
Franz,2022-11-15,4230,Anhaenger,New Holland
Franz,2022-11-14,4430,Anhaenger,Iseki
Franz,2022-11-13,4536,Anhaenger,Valtra
Franz,2022-11-12,3433,Anhaenger,Escorts
Franz,2022-11-11,2344,Anhaenger,Fendt
Franz,2022-11-10,4343,Traktor,Kubota
Franz,2022-11-09,44230,Traktor,Steyr
Franz,2022-11-08,44230,Traktor,New Holland
Franz,2022-11-07,44230,Traktor,Iseki
Franz,2022-11-06,44230,Traktor,Valtra
Franz,2022-11-05,44230,Traktor,Valtra
Franz,2022-11-04,44230,Traktor,Valtra
Franz,2022-11-03,44230,Traktor,Valtra
Franz,2022-11-02,44230,Traktor,Valtra
Franz,2022-11-20,66230,Traktor,Valtra
Franz,2022-11-19,42344,Traktor,Valtra
Franz,2022-11-18,21533,Traktor,Valtra
Franz,2022-11-16,44230,Traktor,Steyr
Franz,2022-11-15,44230,Traktor,New Holland
Franz,2022-11-14,44230,Traktor,Iseki
Franz,2022-11-13,44230,Traktor,Valtra
Franz,2022-11-12,42344,Traktor,Escorts
Franz,2022-11-11,21533,Traktor,Fendt
Franz,2022-11-10,44230,Traktor,Kubota
Franz,2022-11-09,44230,Traktor,Steyr
Franz,2022-11-08,44230,Traktor,New Holland
Franz,2022-11-07,44230,Traktor,Iseki
Franz,2022-11-06,44230,Traktor,Valtra
Franz,2022-11-05,44230,Traktor,Valtra
Franz,2022-11-04,44230,Traktor,Valtra
Franz,2022-11-03,44230,Traktor,Valtra
Franz,2022-11-02,44230,Traktor,Valtra
Franz,2022-11-01,44230,Traktor,Valtra
Franz,2022-11-30,44230,Traktor,Valtra
Franz,2022-11-29,66230,Traktor,Escorts
Franz,2022-11-28,42344,Traktor,Fendt
Franz,2022-11-27,21533,Traktor,Kubota
Franz,2022-11-26,44230,Traktor,Steyr
Franz,2022-11-25,44230,Traktor,New Holland
Franz,2022-11-24,44230,Traktor,Iseki
Franz,2022-11-23,44230,Traktor,Valtra
Franz,2022-11-22,44230,Traktor,Valtra
Franz,2022-11-21,44230,Traktor,Valtra
Franz,2022-11-20,66230,Traktor,Valtra
Franz,2022-11-19,42344,Traktor,Valtra
Franz,2022-11-18,21533,Traktor,Valtra
Franz,2022-11-16,44230,Traktor,Steyr
Franz,2022-11-15,44230,Traktor,New Holland
Franz,2022-11-08,44230,Traktor,New Holland
Franz,2022-11-07,44230,Traktor,Iseki
Franz,2022-11-06,44230,Traktor,Valtra
Franz,2022-11-05,44230,Traktor,Valtra
Franz,2022-11-04,44230,Traktor,Valtra
Franz,2022-11-03,44230,Traktor,Valtra
Franz,2022-11-02,44230,Traktor,Valtra
Franz,2022-11-01,44230,Traktor,Valtra
Franz,2022-11-27,521533,Maehdrescher,Kubota
Franz,2022-11-26,444230,Maehdrescher,Steyr
Franz,2022-11-25,244230,Maehdrescher,New Holland
Franz,2022-11-24,144230,Maehdrescher,Iseki
Franz,2022-11-23,244230,Maehdrescher,Valtra
Franz,2022-11-22,544230,Maehdrescher,Valtra
Franz,2022-11-21,343230,Maehdrescher,Valtra
Franz,2022-11-01,144230,Maehdrescher,Valtra
Christoph,2022-11-30,44230,Traktor,John Deer
Christoph,2022-11-29,66230,Traktor,Lamborghini
Christoph,2022-11-28,42344,Traktor,Escorts
Christoph,2022-11-27,21533,Traktor,Fendt
Christoph,2022-11-26,44230,Traktor,Kubota
Christoph,2022-11-25,44230,Traktor,Steyr
Christoph,2022-11-24,44230,Traktor,New Holland
Christoph,2022-11-23,44230,Traktor,Iseki
Christoph,2022-11-12,42344,Traktor,Escorts
Christoph,2022-11-11,21533,Traktor,Fendt
Christoph,2022-11-10,44230,Traktor,Kubota
Christoph,2022-11-09,44230,Traktor,Steyr
Christoph,2022-11-08,44230,Traktor,New Holland
Christoph,2022-11-07,44230,Traktor,Iseki
Christoph,2022-11-06,44230,Traktor,Valtra
Christoph,2022-11-05,44230,Traktor,Valtra
Christoph,2022-11-04,44230,Traktor,Valtra
Christoph,2022-11-03,44230,Traktor,Valtra
Christoph,2022-11-02,44230,Traktor,Valtra
Christoph,2022-11-01,44230,Traktor,Valtra
Christoph,2022-11-23,44230,Traktor,Iseki
Christoph,2022-11-12,42344,Traktor,Escorts
Christoph,2022-11-11,21533,Traktor,Fendt
Christoph,2022-11-10,44230,Traktor,Kubota
Christoph,2022-11-09,44230,Traktor,Steyr
Christoph,2022-11-08,44230,Traktor,New Holland
Christoph,2022-11-07,44230,Traktor,Iseki
Christoph,2022-11-06,521533,Maehdrescher,Kubota
Christoph,2022-11-05,444230,Maehdrescher,Steyr
Christoph,2022-11-04,244230,Maehdrescher,New Holland
Christoph,2022-11-03,144230,Maehdrescher,Iseki
Christoph,2022-11-02,244230,Maehdrescher,Valtra
Christoph,2022-11-01,544230,Maehdrescher,Valtra
Christoph,2022-11-12,6230,Anhaenger,Valtra
Christoph,2022-11-04,2344,Anhaenger,Valtra
Christoph,2022-11-03,1533,Anhaenger,Valtra
Christoph,2022-11-02,4230,Anhaenger,Steyr
Christoph,2022-11-01,4230,Anhaenger,New Holland
Christoph,2022-11-05,4430,Anhaenger,Iseki
Christoph,2022-11-06,4536,Anhaenger,Valtra
Christoph,2022-11-07,3433,Anhaenger,Escorts
Christoph,2022-11-08,2344,Anhaenger,Fendt